{
    "spectrum": {
        "show": "true",
        "n-points": "500",
        "height": "100",
        "use-custom-color": "false",
        "fill": "true",
        "show-bar-border": "true",
        "scale": "1",
        "exponent": "1",
        "sampling-freq": "10",
        "line-width": "2",
        "type": "Bars",
        "color": [
            "1",
            "1",
            "1",
            "1"
        ],
        "gradient-color": [
            "0",
            "0",
            "0",
            "1"
        ]
    },
    "output": {
        "blacklist": "",
        "plugins_order": [
            "limiter",
            "autogain",
            "gate",
            "multiband_gate",
            "compressor",
            "multiband_compressor",
            "convolver",
            "bass_enhancer",
            "exciter",
            "crystalizer",
            "stereo_tools",
            "reverb",
            "equalizer",
            "delay",
            "deesser",
            "crossfeed",
            "loudness",
            "maximizer",
            "filter",
            "pitch"
        ],
        "bass_enhancer": {
            "state": "false",
            "input-gain": "0",
            "output-gain": "0",
            "amount": "2",
            "harmonics": "4.6999999999999993",
            "scope": "223",
            "floor": "50",
            "blend": "-2",
            "floor-active": "true",
            "listen": "false"
        },
        "compressor": {
            "state": "false",
            "input-gain": "0",
            "output-gain": "0",
            "mode": "Upward",
            "attack": "20",
            "release": "100",
            "threshold": "-27",
            "ratio": "4",
            "knee": "-6",
            "makeup": "0",
            "sidechain": {
                "listen": "false",
                "type": "Feed-forward",
                "mode": "RMS",
                "source": "Middle",
                "preamp": "0",
                "reactivity": "10",
                "lookahead": "0"
            }
        },
        "crossfeed": {
            "state": "false",
            "fcut": "700",
            "feed": "4.5"
        },
        "deesser": {
            "state": "false",
            "detection": "RMS",
            "mode": "Wide",
            "threshold": "-18",
            "ratio": "3",
            "laxity": "15",
            "makeup": "0",
            "f1-freq": "6000",
            "f2-freq": "4500",
            "f1-level": "0",
            "f2-level": "12",
            "f2-q": "1",
            "sc-listen": "true"
        },
        "equalizer": {
            "state": "true",
            "mode": "IIR",
            "num-bands": "10",
            "input-gain": "0",
            "output-gain": "0",
            "split-channels": "false",
            "left": {
                "band0": {
                    "type": "Lo-shelf",
                    "mode": "RLC (BT)",
                    "slope": "x1",
                    "solo": "false",
                    "mute": "false",
                    "gain": "-4.7999999999999998",
                    "frequency": "29.952623149688797",
                    "q": "1.5047602375372451"
                },
                "band1": {
                    "type": "Bell",
                    "mode": "RLC (BT)",
                    "slope": "x1",
                    "solo": "false",
                    "mute": "false",
                    "gain": "-7.7000000000000002",
                    "frequency": "59.763340205038524",
                    "q": "1.5047602375372453"
                },
                "band2": {
                    "type": "Bell",
                    "mode": "RLC (BT)",
                    "slope": "x1",
                    "solo": "false",
                    "mute": "false",
                    "gain": "-9.8000000000000007",
                    "frequency": "119.24354052777788",
                    "q": "1.5047602375372451"
                },
                "band3": {
                    "type": "Bell",
                    "mode": "RLC (BT)",
                    "slope": "x1",
                    "solo": "false",
                    "mute": "false",
                    "gain": "-2.5",
                    "frequency": "237.92214271853953",
                    "q": "1.5047602375372451"
                },
                "band4": {
                    "type": "Bell",
                    "mode": "RLC (BT)",
                    "slope": "x1",
                    "solo": "false",
                    "mute": "false",
                    "gain": "0",
                    "frequency": "474.71708526294935",
                    "q": "1.5047602375372453"
                },
                "band5": {
                    "type": "Bell",
                    "mode": "RLC (BT)",
                    "slope": "x1",
                    "solo": "false",
                    "mute": "false",
                    "gain": "4",
                    "frequency": "947.18511049703125",
                    "q": "1.5047602375372451"
                },
                "band6": {
                    "type": "Bell",
                    "mode": "RLC (BT)",
                    "slope": "x1",
                    "solo": "false",
                    "mute": "false",
                    "gain": "8",
                    "frequency": "1889.8827562743609",
                    "q": "1.5047602375372449"
                },
                "band7": {
                    "type": "Bell",
                    "mode": "RLC (BT)",
                    "slope": "x1",
                    "solo": "false",
                    "mute": "false",
                    "gain": "9",
                    "frequency": "3770.8118433037489",
                    "q": "1.5047602375372449"
                },
                "band8": {
                    "type": "Bell",
                    "mode": "RLC (BT)",
                    "slope": "x1",
                    "solo": "false",
                    "mute": "false",
                    "gain": "11",
                    "frequency": "7523.7587677823067",
                    "q": "1.5047602375372453"
                },
                "band9": {
                    "type": "Hi-shelf",
                    "mode": "RLC (BT)",
                    "slope": "x1",
                    "solo": "false",
                    "mute": "false",
                    "gain": "12",
                    "frequency": "15011.872336272731",
                    "q": "1.5047602375372451"
                }
            },
            "right": {
                "band0": {
                    "type": "Lo-shelf",
                    "mode": "RLC (BT)",
                    "slope": "x1",
                    "solo": "false",
                    "mute": "false",
                    "gain": "-4.7999999999999998",
                    "frequency": "29.952623149688797",
                    "q": "1.5047602375372451"
                },
                "band1": {
                    "type": "Bell",
                    "mode": "RLC (BT)",
                    "slope": "x1",
                    "solo": "false",
                    "mute": "false",
                    "gain": "-7.7000000000000002",
                    "frequency": "59.763340205038524",
                    "q": "1.5047602375372453"
                },
                "band2": {
                    "type": "Bell",
                    "mode": "RLC (BT)",
                    "slope": "x1",
                    "solo": "false",
                    "mute": "false",
                    "gain": "-9.8000000000000007",
                    "frequency": "119.24354052777788",
                    "q": "1.5047602375372451"
                },
                "band3": {
                    "type": "Bell",
                    "mode": "RLC (BT)",
                    "slope": "x1",
                    "solo": "false",
                    "mute": "false",
                    "gain": "-2.5",
                    "frequency": "237.92214271853953",
                    "q": "1.5047602375372451"
                },
                "band4": {
                    "type": "Bell",
                    "mode": "RLC (BT)",
                    "slope": "x1",
                    "solo": "false",
                    "mute": "false",
                    "gain": "0",
                    "frequency": "474.71708526294935",
                    "q": "1.5047602375372453"
                },
                "band5": {
                    "type": "Bell",
                    "mode": "RLC (BT)",
                    "slope": "x1",
                    "solo": "false",
                    "mute": "false",
                    "gain": "4",
                    "frequency": "947.18511049703125",
                    "q": "1.5047602375372451"
                },
                "band6": {
                    "type": "Bell",
                    "mode": "RLC (BT)",
                    "slope": "x1",
                    "solo": "false",
                    "mute": "false",
                    "gain": "8",
                    "frequency": "1889.8827562743609",
                    "q": "1.5047602375372449"
                },
                "band7": {
                    "type": "Bell",
                    "mode": "RLC (BT)",
                    "slope": "x1",
                    "solo": "false",
                    "mute": "false",
                    "gain": "9",
                    "frequency": "3770.8118433037489",
                    "q": "1.5047602375372449"
                },
                "band8": {
                    "type": "Bell",
                    "mode": "RLC (BT)",
                    "slope": "x1",
                    "solo": "false",
                    "mute": "false",
                    "gain": "11",
                    "frequency": "7523.7587677823067",
                    "q": "1.5047602375372453"
                },
                "band9": {
                    "type": "Hi-shelf",
                    "mode": "RLC (BT)",
                    "slope": "x1",
                    "solo": "false",
                    "mute": "false",
                    "gain": "12",
                    "frequency": "15011.872336272731",
                    "q": "1.5047602375372451"
                }
            }
        },
        "exciter": {
            "state": "true",
            "input-gain": "0",
            "output-gain": "0",
            "amount": "2",
            "harmonics": "6.6000000000000068",
            "scope": "7500",
            "ceil": "16000",
            "blend": "0",
            "ceil-active": "false",
            "listen": "false"
        },
        "filter": {
            "state": "false",
            "input-gain": "0",
            "output-gain": "0",
            "frequency": "2000",
            "resonance": "-3",
            "mode": "12dB\/oct Lowpass",
            "inertia": "20"
        },
        "gate": {
            "state": "false",
            "detection": "RMS",
            "stereo-link": "Average",
            "range": "-24",
            "attack": "20",
            "release": "250",
            "threshold": "-18",
            "ratio": "2",
            "knee": "9",
            "makeup": "0"
        },
        "limiter": {
            "state": "false",
            "input-gain": "0",
            "limit": "0",
            "lookahead": "5",
            "release": "50",
            "asc": "false",
            "asc-level": "0.5",
            "oversampling": "1"
        },
        "maximizer": {
            "state": "false",
            "release": "3.1600000000000001",
            "ceiling": "-6",
            "threshold": "-30"
        },
        "pitch": {
            "state": "false",
            "input-gain": "0",
            "output-gain": "0",
            "cents": "0",
            "semitones": "0",
            "octaves": "0",
            "crispness": "3",
            "formant-preserving": "false",
            "faster": "false"
        },
        "reverb": {
            "state": "false",
            "input-gain": "0",
            "output-gain": "0",
            "room-size": "Large\/smooth",
            "decay-time": "3.0000000000000009",
            "hf-damp": "20000",
            "diffusion": "1",
            "amount": "-8.7298564910888672",
            "dry": "0",
            "predelay": "0",
            "bass-cut": "300",
            "treble-cut": "5000"
        },
        "multiband_compressor": {
            "state": "false",
            "input-gain": "0",
            "output-gain": "0",
            "freq0": "120",
            "freq1": "1000",
            "freq2": "6000",
            "mode": "LR8",
            "subband": {
                "threshold": "-12",
                "ratio": "2",
                "attack": "150",
                "release": "300",
                "makeup": "0",
                "knee": "9",
                "detection": "RMS",
                "bypass": "false",
                "solo": "false"
            },
            "lowband": {
                "threshold": "-12",
                "ratio": "2",
                "attack": "150",
                "release": "300",
                "makeup": "0",
                "knee": "9",
                "detection": "RMS",
                "bypass": "false",
                "solo": "false"
            },
            "midband": {
                "threshold": "-12",
                "ratio": "2",
                "attack": "150",
                "release": "300",
                "makeup": "0",
                "knee": "9",
                "detection": "RMS",
                "bypass": "false",
                "solo": "false"
            },
            "highband": {
                "threshold": "-12",
                "ratio": "2",
                "attack": "150",
                "release": "300",
                "makeup": "0",
                "knee": "9",
                "detection": "RMS",
                "bypass": "false",
                "solo": "false"
            }
        },
        "loudness": {
            "state": "false",
            "loudness": "-2.0200000000000231",
            "output": "-5.4000000000000128",
            "link": "-9.0999999999999996"
        },
        "multiband_gate": {
            "state": "false",
            "input-gain": "0",
            "output-gain": "0",
            "freq0": "120",
            "freq1": "1000",
            "freq2": "6000",
            "mode": "LR8",
            "subband": {
                "reduction": "-24",
                "threshold": "-12",
                "ratio": "2",
                "attack": "150",
                "release": "300",
                "makeup": "0",
                "knee": "9",
                "detection": "RMS",
                "bypass": "false",
                "solo": "false"
            },
            "lowband": {
                "reduction": "-24",
                "threshold": "-12",
                "ratio": "2",
                "attack": "150",
                "release": "300",
                "makeup": "0",
                "knee": "9",
                "detection": "RMS",
                "bypass": "false",
                "solo": "false"
            },
            "midband": {
                "reduction": "-24",
                "threshold": "-12",
                "ratio": "2",
                "attack": "150",
                "release": "300",
                "makeup": "0",
                "knee": "9",
                "detection": "RMS",
                "bypass": "false",
                "solo": "false"
            },
            "highband": {
                "reduction": "-24",
                "threshold": "-12",
                "ratio": "2",
                "attack": "150",
                "release": "300",
                "makeup": "0",
                "knee": "9",
                "detection": "RMS",
                "bypass": "false",
                "solo": "false"
            }
        },
        "stereo_tools": {
            "state": "false",
            "input-gain": "0",
            "output-gain": "0",
            "balance-in": "0",
            "balance-out": "0",
            "softclip": "false",
            "mutel": "false",
            "muter": "false",
            "phasel": "false",
            "phaser": "false",
            "mode": "LR > LR (Stereo Default)",
            "side-level": "0",
            "side-balance": "0",
            "middle-level": "0",
            "middle-panorama": "0",
            "stereo-base": "0",
            "delay": "0",
            "sc-level": "1",
            "stereo-phase": "0"
        },
        "convolver": {
            "state": "true",
            "input-gain": "0",
            "output-gain": "0",
            "kernel-path": "\/home\/x230\/.config\/PulseEffects\/irs\/Apple iPod ((128K MP3)) 19.Small Speakers.irs",
            "ir-width": "100"
        },
        "crystalizer": {
            "state": "true",
            "aggressive": "false",
            "input-gain": "0",
            "output-gain": "0",
            "band0": {
                "intensity": "0",
                "mute": "false",
                "bypass": "false"
            },
            "band1": {
                "intensity": "0",
                "mute": "false",
                "bypass": "false"
            },
            "band2": {
                "intensity": "0",
                "mute": "false",
                "bypass": "false"
            },
            "band3": {
                "intensity": "0",
                "mute": "false",
                "bypass": "false"
            },
            "band4": {
                "intensity": "0",
                "mute": "false",
                "bypass": "false"
            },
            "band5": {
                "intensity": "0",
                "mute": "false",
                "bypass": "false"
            },
            "band6": {
                "intensity": "0",
                "mute": "false",
                "bypass": "false"
            },
            "band7": {
                "intensity": "2",
                "mute": "false",
                "bypass": "false"
            },
            "band8": {
                "intensity": "4",
                "mute": "false",
                "bypass": "false"
            },
            "band9": {
                "intensity": "6",
                "mute": "false",
                "bypass": "false"
            },
            "band10": {
                "intensity": "6",
                "mute": "false",
                "bypass": "false"
            },
            "band11": {
                "intensity": "3",
                "mute": "false",
                "bypass": "false"
            },
            "band12": {
                "intensity": "3",
                "mute": "false",
                "bypass": "false"
            }
        },
        "autogain": {
            "state": "true",
            "input-gain": "0",
            "output-gain": "0",
            "target": "-22",
            "weight-m": "1",
            "weight-s": "1",
            "weight-i": "1"
        },
        "delay": {
            "state": "false",
            "input-gain": "0",
            "output-gain": "0",
            "time-l": "0",
            "time-r": "0"
        }
    }
}
